{
    "modules": [
        {
            "config": {
                "position": [
                    146,
                    116
                ]
            },
            "name": "New Model Object",
            "value": {
                "actionGroup": {
                    "_default0_list": false,
                    "_default1_show": false,
                    "_default2_new_create": false,
                    "_default3_edit_update": false,
                    "_default4_delete": false,
                    "customActions": [
                        "showFalImage"
                    ]
                },
                "name": "FalImage",
                "objectsettings": {
                    "addDeletedField": true,
                    "addHiddenField": true,
                    "addStarttimeEndtimeFields": true,
                    "aggregateRoot": true,
                    "categorizable": false,
                    "description": "",
                    "mapToTable": "",
                    "parentClass": "",
                    "sorting": false,
                    "type": "Entity",
                    "uid": "1318104121831"
                },
                "propertyGroup": {
                    "properties": [
                        {
                            "allowedFileTypes": "",
                            "maxItems": "1",
                            "propertyDescription": "",
                            "propertyIsExcludeField": false,
                            "propertyIsRequired": false,
                            "propertyName": "falImage",
                            "propertyType": "Image",
                            "uid": "77783956390"
                        },
                        {
                            "allowedFileTypes": "",
                            "maxItems": "1",
                            "propertyDescription": "",
                            "propertyIsExcludeField": false,
                            "propertyIsRequired": false,
                            "propertyName": "focusX",
                            "propertyType": "Float",
                            "uid": "597811524283"
                        },
                        {
                            "allowedFileTypes": "",
                            "maxItems": "1",
                            "propertyDescription": "",
                            "propertyIsExcludeField": false,
                            "propertyIsRequired": false,
                            "propertyName": "focusY",
                            "propertyType": "Float",
                            "uid": "372757695405"
                        }
                    ]
                },
                "relationGroup": {
                    "relations": []
                }
            }
        }
    ],
    "properties": {
        "backendModules": [],
        "description": "",
        "emConf": {
            "category": "plugin",
            "custom_category": "",
            "dependsOn": "typo3 => 10.4.0-10.9.99",
            "disableLocalization": false,
            "disableVersioning": false,
            "skipGenerateDocumentationTemplate": false,
            "sourceLanguage": "en",
            "state": "stable",
            "targetVersion": "10.4.0-10.9.99",
            "version": "10.4.3"
        },
        "extensionKey": "hive_cpt_cnt_img",
        "name": "hive_cpt_cnt_img",
        "originalExtensionKey": "hive_cpt_cnt_img",
        "originalVendorName": "HIVE",
        "persons": [
            {
                "company": "teufels GmbH",
                "name": " Albert Giss",
                "email": "a.giss@teufels.com",
                "homepage": "https://teufels.com",
                "role": "Developer"
            },
            {
                "company": "teufels GmbH",
                "name": "Alexander Neher",
                "email": "a.neher@teufels.com",
                "homepage": "https://teufels.com",
                "role": "Developer"
            },
            {
                "company": "teufels GmbH",
                "name": "Andreas Hafner",
                "email": "a.hafner@teufels.com",
                "homepage": "https://teufels.com",
                "role": "Developer"
            },
            {
                "company": "teufels GmbH",
                "name": "Bastian Holzem",
                "email": "b.holzem@teufels.com",
                "homepage": "https://teufels.com",
                "role": "Developer"
            },
            {
                "company": "teufels GmbH",
                "name": "Hendrik Krueger",
                "email": "h.krueger@teufels.com",
                "homepage": "https://teufels.com",
                "role": "Developer"
            },
            {
                "company": "teufels GmbH",
                "name": "Marcel Weber",
                "email": "m.weber@teufels.com",
                "homepage": "https://teufels.com",
                "role": "Developer"
            },
            {
                "company": "teufels GmbH",
                "name": "Timo Bittner",
                "email": "t.bittner@teufels.com",
                "homepage": "https://teufels.com",
                "role": "Developer"
            },
            {
                "company": "teufels GmbH",
                "name": "Yannick Aister",
                "email": "y.aister@teufels",
                "homepage": "https://teufels.com",
                "role": "Developer"
            }
        ],
        "plugins": [
            {
                "actions": {
                    "controllerActionCombinations": "FalImage => showFalImage",
                    "noncacheableActions": "",
                    "switchableActions": ""
                },
                "key": "hivecptcntimgshowfalimage",
                "name": "hive :: FAL Image :: showFalImage"
            }
        ],
        "vendorName": "HIVE"
    },
    "wires": [],
    "log": {
        "last_modified": "2020-07-09 11:28",
        "extension_builder_version": "8.6.0",
        "be_user": " (1)"
    }
}